{"code":1,"msg":"","time":1584610130,"data":{"total":88,"per_page":20,"current_page":2,"last_page":5,"data":[{"id":69,"content":"<p>华为牛b！！！！（破音）</p><iframe src="\" player.bilibili.com player.html?aid="53779357&cid=94070226&page=1\""" scrolling="\" no\"" border="\" 0\"" frameborder="\" framespacing="\" allowfullscreen="\" true\"" width="\" 100%\"" height="\" 500\""> </iframe>","delete_time":null,"update_time":"2019-05-31 20:20:19","create_time":"2019-05-31 20:18:59","date":"2019-05-31","time":"08:18"},{"id":68,"content":"<p>有时候在开源这方面，根据用户的诉求，不得不做出一些牺牲，更重要的是，你会在其中学习到很多的经验。<br>开源是为了什么？开源有哪些好处？了解一下 vue 的发展史你就知道了！<br><a 106799 href="\" https: www.oschina.net news the-struggles-of-an-open-source-maintainer\"">https://www.oschina.net/news/106799/the-struggles-of-an-open-source-maintainer</a></p>","delete_time":null,"update_time":"2019-05-20 23:34:54","create_time":"2019-05-20 23:34:54","date":"2019-05-20","time":"11:34"},{"id":67,"content":"<p>今天熊猫上我的电脑桌，把我的手机都给踢下来了，就差没把显示器打翻了，气得我狠狠地拍它的屁股。</p>","delete_time":null,"update_time":"2019-05-15 22:03:08","create_time":"2019-05-15 22:03:08","date":"2019-05-15","time":"10:03"},{"id":66,"content":"<p>“当我们依照惯例整理和分析谷歌搜索引擎的流量数据时，一条从未见过的曲线出现在我们面前。当意识到发生了什么事情时，我们的眼睛湿润了。”<img 12 2019 src="\" https: cdn.wispx.cn blog 05 26dce59130329fcf.png\"" alt="\" \""></p>","delete_time":null,"update_time":"2019-05-12 17:12:53","create_time":"2019-05-12 17:12:53","date":"2019-05-12","time":"05:12"},{"id":65,"content":"<p>兰空图床已更新至1.5.3版本，改进了一些细节，推荐更新，没更新的快去下载吧，<a href="\" https: github.com wisp-x lsky-pro\"">https://github.com/wisp-x/lsky-pro</a></p>","delete_time":null,"update_time":"2019-05-09 21:11:04","create_time":"2019-05-09 21:11:04","date":"2019-05-09","time":"09:11"},{"id":64,"content":"<p>塞尔达传说真好玩，打打怪、炸炸鱼、去山上烧火看看风景，别提多有趣了，救公主？可以！但没必要！</p>","delete_time":null,"update_time":"2019-05-03 10:46:27","create_time":"2019-05-03 10:46:27","date":"2019-05-03","time":"10:46"},{"id":63,"content":"<p>连肝刀剑神域和 OVERLORD，骨王可真能装。。</p>","delete_time":null,"update_time":"2019-05-02 10:49:31","create_time":"2019-05-02 10:49:31","date":"2019-05-02","time":"10:49"},{"id":62,"content":"<p>《刺客信条：大革命》免费下载了，<a href="\" https: register.ubisoft.com acu-notredame-giveaway zh-cn\"">https://register.ubisoft.com/acu-notredame-giveaway/zh-CN</a></p>","delete_time":null,"update_time":"2019-04-17 23:17:48","create_time":"2019-04-17 23:17:48","date":"2019-04-17","time":"11:17"},{"id":61,"content":"<p>今晚友链都回访了一遍，真好。<br>我的博客默认banner图，拍摄于2018年4月29日方特欢乐世界美国街。<br>也不知道为什么，就是突然想写下来，或许是因为那是我去年最开心的时刻吧。</p>","delete_time":null,"update_time":"2019-04-16 20:36:00","create_time":"2019-04-16 20:36:00","date":"2019-04-16","time":"08:36"},{"id":60,"content":"<p>使用 flutter 开发了一个app，See：<a href="\" https: github.com wisp-x music\"">https://github.com/wisp-x/music</a></p>","delete_time":null,"update_time":"2019-04-16 10:26:28","create_time":"2019-04-16 10:26:28","date":"2019-04-16","time":"10:26"},{"id":59,"content":"<p>“牺牲自己，让资本家更富有”  </p><p><a href="\" https: github.com 996icu 996.icu\"">https://github.com/996icu/996.ICU</a></p>","delete_time":null,"update_time":"2019-03-30 11:55:49","create_time":"2019-03-30 11:55:03","date":"2019-03-30","time":"11:55"},{"id":58,"content":"<p>想知道本博客文章的url是怎么做的吗？see：<a href="\" https: github.com wisp-x slug\"">https://github.com/wisp-x/slug</a></p>","delete_time":null,"update_time":"2019-03-21 21:57:52","create_time":"2019-03-21 21:28:44","date":"2019-03-21","time":"09:28"},{"id":57,"content":"<p>弃坑宝塔，自己定制运行环境</p>","delete_time":null,"update_time":"2019-03-17 11:29:01","create_time":"2019-03-17 11:29:01","date":"2019-03-17","time":"11:29"},{"id":56,"content":"<p>博客增加了一个音乐播放器，捣鼓了半下午，只要网页不刷新可以持续播放ing</p>","delete_time":null,"update_time":"2019-03-10 22:06:30","create_time":"2019-03-10 22:06:30","date":"2019-03-10","time":"10:06"},{"id":55,"content":"<p>牙痛</p>","delete_time":null,"update_time":"2019-03-08 15:57:10","create_time":"2019-03-08 15:57:10","date":"2019-03-08","time":"03:57"},{"id":54,"content":"<p>上周末，把《驯龙高手》和《绿皮书》看完了，说实话《驯龙高手》没有理想中的好看，剧情有点拖拉，可能是我对它的期望值太高了吧。<br>截至目前位置，在我心目中 《申克的救赎》是我看过所有的电影里感触最深的一部电影，其次是《灿烂人生》，现在《绿皮书》，顶替了我心目中《灿烂人生》的位置。抽空在去二刷一遍。</p>","delete_time":null,"update_time":"2019-03-06 20:19:16","create_time":"2019-03-06 20:19:16","date":"2019-03-06","time":"08:19"},{"id":53,"content":"<p>Laravel 5.8发布了，第一时间尝鲜了</p>","delete_time":null,"update_time":"2019-02-27 21:47:04","create_time":"2019-02-27 21:47:04","date":"2019-02-27","time":"09:47"},{"id":52,"content":"<p>阿丽塔帅到爆啊！！！</p>","delete_time":null,"update_time":"2019-02-25 22:56:16","create_time":"2019-02-25 22:56:16","date":"2019-02-25","time":"10:56"},{"id":51,"content":"<p>上古卷轴5里的某个小村庄，我就拿了一瓶药，被全村的人追着打！！！我特么的...</p>","delete_time":null,"update_time":"2019-02-24 19:13:54","create_time":"2019-02-24 19:13:54","date":"2019-02-24","time":"07:13"},{"id":50,"content":"<p>要一个黄昏，满是风，和正在落下的夕阳。如果麦子刚好熟了，炊烟恰恰升起。那只白鸽贴着水面飞过，栖息于一棵芦苇。而芦苇正好准备了一首曲子。如此，足够我爱这破碎泥泞的人间。</p><p align="\" right\"">—— 余秀华</p>","delete_time":null,"update_time":"2019-02-19 23:51:54","create_time":"2019-02-19 23:51:05","date":"2019-02-19","time":"11:51"}]}}